﻿1b) Subbasin,Sampling Groups,Visualization End Date,Cell #,1l) Data Type,Collecting Event Id,End Date,Error filter,Start Date,susNull,1a) Catalog Number,1c) Taxon,1e) Locality,1f) Start Date,1g) End Date,1k) Institution,1k) Institution Type,a) Catalog Object Hyperlink,HUC_2,Object End Date,suspect,Taxon,Blank,Cell / HUC8 Shape,Count of Collections,Count of Objects in Cell,maximum_uncertainty_estimate
Hubbard,Unsampled,,2320,HUCs and Grid,,,,,False,,,,,,,,,12,,,,,Polygon,0,0,
Hubbard,Unsampled,,2321,HUCs and Grid,,,,,False,,,,,,,,,12,,,,,Polygon,0,0,
Hubbard,Unsampled,,2322,HUCs and Grid,,,,,False,,,,,,,,,12,,,,,Polygon,0,0,
Hubbard,Unsampled,,2323,HUCs and Grid,,,,,False,,,,,,,,,12,,,,,Polygon,0,0,
Hubbard,Unsampled,,2324,HUCs and Grid,,,,,False,,,,,,,,,12,,,,,Polygon,0,0,
Hubbard,Unsampled,,2325,HUCs and Grid,,,,,False,,,,,,,,,12,,,,,Polygon,0,0,
Hubbard,Unsampled,,2326,HUCs and Grid,,,,,False,,,,,,,,,12,,,,,Polygon,0,0,
Hubbard,Unsampled,,2336,HUCs and Grid,,,,,False,,,,,,,,,12,,,,,Polygon,0,0,
Hubbard,Unsampled,,2341,HUCs and Grid,,,,,False,,,,,,,,,12,,,,,Polygon,0,0,
Hubbard,Unsampled,,2346,HUCs and Grid,,,,,False,,,,,,,,,12,,,,,Polygon,0,0,
Hubbard,Unsampled,,2351,HUCs and Grid,,,,,False,,,,,,,,,12,,,,,Polygon,0,0,
Hubbard,Unsampled,,2356,HUCs and Grid,,,,,False,,,,,,,,,12,,,,,Polygon,0,0,
Hubbard,Unsampled,,2361,HUCs and Grid,,,,,False,,,,,,,,,12,,,,,Polygon,0,0,
Hubbard,Unsampled,,2366,HUCs and Grid,,,,,False,,,,,,,,,12,,,,,Polygon,0,0,
Hubbard,Unsampled,,2371,HUCs and Grid,,,,,False,,,,,,,,,12,,,,,Polygon,0,0,
Hubbard,Unsampled,,2403,HUCs and Grid,,,,,False,,,,,,,,,12,,,,,Polygon,0,0,
Hubbard,Unsampled,,2404,HUCs and Grid,,,,,False,,,,,,,,,12,,,,,Polygon,0,0,
Hubbard,Unsampled,,2405,HUCs and Grid,,,,,False,,,,,,,,,12,,,,,Polygon,0,0,
Hubbard,Unsampled,,2406,HUCs and Grid,,,,,False,,,,,,,,,12,,,,,Polygon,0,0,
Hubbard,Unsampled,,2407,HUCs and Grid,,,,,False,,,,,,,,,12,,,,,Polygon,0,0,
Hubbard,Unsampled,,2413,HUCs and Grid,,,,,False,,,,,,,,,12,,,,,Polygon,0,0,
Hubbard,Unsampled,,2414,HUCs and Grid,,,,,False,,,,,,,,,12,,,,,Polygon,0,0,
Hubbard,Unsampled,,2415,HUCs and Grid,,,,,False,,,,,,,,,12,,,,,Polygon,0,0,
Hubbard,Unsampled,,2416,HUCs and Grid,,,,,False,,,,,,,,,12,,,,,Polygon,0,0,
Hubbard,Unsampled,,2417,HUCs and Grid,,,,,False,,,,,,,,,12,,,,,Polygon,0,0,
Hubbard,Unsampled,,2418,HUCs and Grid,,,,,False,,,,,,,,,12,,,,,Polygon,0,0,
Hubbard,Unsampled,,2423,HUCs and Grid,,,,,False,,,,,,,,,12,,,,,Polygon,0,0,
Hubbard,Unsampled,,2424,HUCs and Grid,,,,,False,,,,,,,,,12,,,,,Polygon,0,0,
Hubbard,Unsampled,,2425,HUCs and Grid,,,,,False,,,,,,,,,12,,,,,Polygon,0,0,
Hubbard,Unsampled,,2426,HUCs and Grid,,,,,False,,,,,,,,,12,,,,,Polygon,0,0,
Hubbard,Unsampled,,2427,HUCs and Grid,,,,,False,,,,,,,,,12,,,,,Polygon,0,0,
Hubbard,Unsampled,,2428,HUCs and Grid,,,,,False,,,,,,,,,12,,,,,Polygon,0,0,
Hubbard,Unsampled,,2434,HUCs and Grid,,,,,False,,,,,,,,,12,,,,,Polygon,0,0,
Hubbard,Unsampled,,2435,HUCs and Grid,,,,,False,,,,,,,,,12,,,,,Polygon,0,0,
Hubbard,Unsampled,,2436,HUCs and Grid,,,,,False,,,,,,,,,12,,,,,Polygon,0,0,
Hubbard,Unsampled,,2437,HUCs and Grid,,,,,False,,,,,,,,,12,,,,,Polygon,0,0,
Hubbard,Unsampled,,2438,HUCs and Grid,,,,,False,,,,,,,,,12,,,,,Polygon,0,0,
Hubbard,Unsampled,,2439,HUCs and Grid,,,,,False,,,,,,,,,12,,,,,Polygon,0,0,
Hubbard,Unsampled,,2445,HUCs and Grid,,,,,False,,,,,,,,,12,,,,,Polygon,0,0,
Hubbard,Unsampled,,2446,HUCs and Grid,,,,,False,,,,,,,,,12,,,,,Polygon,0,0,
Hubbard,Unsampled,,2447,HUCs and Grid,,,,,False,,,,,,,,,12,,,,,Polygon,0,0,
Hubbard,Unsampled,,2448,HUCs and Grid,,,,,False,,,,,,,,,12,,,,,Polygon,0,0,
Hubbard,Unsampled,,2449,HUCs and Grid,,,,,False,,,,,,,,,12,,,,,Polygon,0,0,
Hubbard,Unsampled,,2450,HUCs and Grid,,,,,False,,,,,,,,,12,,,,,Polygon,0,0,
Hubbard,Unsampled,,2456,HUCs and Grid,,,,,False,,,,,,,,,12,,,,,Polygon,0,0,
Hubbard,Unsampled,,2457,HUCs and Grid,,,,,False,,,,,,,,,12,,,,,Polygon,0,0,
Hubbard,Unsampled,,2458,HUCs and Grid,,,,,False,,,,,,,,,12,,,,,Polygon,0,0,
Hubbard,Unsampled,,2459,HUCs and Grid,,,,,False,,,,,,,,,12,,,,,Polygon,0,0,
Hubbard,Unsampled,,2460,HUCs and Grid,,,,,False,,,,,,,,,12,,,,,Polygon,0,0,
Hubbard,Unsampled,,2461,HUCs and Grid,,,,,False,,,,,,,,,12,,,,,Polygon,0,0,
Hubbard,Unsampled,,2467,HUCs and Grid,,,,,False,,,,,,,,,12,,,,,Polygon,0,0,
Hubbard,Unsampled,,2468,HUCs and Grid,,,,,False,,,,,,,,,12,,,,,Polygon,0,0,
Hubbard,Unsampled,,2469,HUCs and Grid,,,,,False,,,,,,,,,12,,,,,Polygon,0,0,
Hubbard,Unsampled,,2470,HUCs and Grid,,,,,False,,,,,,,,,12,,,,,Polygon,0,0,
Hubbard,Unsampled,,2471,HUCs and Grid,,,,,False,,,,,,,,,12,,,,,Polygon,0,0,
Hubbard,Unsampled,,2478,HUCs and Grid,,,,,False,,,,,,,,,12,,,,,Polygon,0,0,
Hubbard,Unsampled,,2479,HUCs and Grid,,,,,False,,,,,,,,,12,,,,,Polygon,0,0,
Hubbard,Unsampled,,2480,HUCs and Grid,,,,,False,,,,,,,,,12,,,,,Polygon,0,0,
Hubbard,Unsampled,,2481,HUCs and Grid,,,,,False,,,,,,,,,12,,,,,Polygon,0,0,
Hubbard,Unsampled,,2482,HUCs and Grid,,,,,False,,,,,,,,,12,,,,,Polygon,0,0,
Hubbard,Unsampled,,2483,HUCs and Grid,,,,,False,,,,,,,,,12,,,,,Polygon,0,0,
Hubbard,1-5 Events,1951,2472,Vouchered Specimen,3370,True,True,True,False,TCWC1562.01,Percina sciera,Cisco Lake at dam,10/14/1951,10/14/1951,Texas Cooperative Wildlife Collections,Museum,http://www.fishesoftexas.org/specimen/TCWC1562.01,12,1951,False,Percina sciera,,Polygon,1,1,147.757888794
Hubbard,1-5 Events,1961,2402,Vouchered Specimen,2144,True,True,True,False,TU39904,Cyprinella lutrensis,North Fork Salt Prong Hubbard Creek West of Albany,3/26/1961,3/26/1961,Tulane Museum of Natural History,Museum,http://www.fishesoftexas.org/specimen/TU39904,12,1961,False,Cyprinella lutrensis,,Polygon,1,1,1049.964111328
Hubbard,1-5 Events,1961,2402,Vouchered Specimen,2144,True,True,True,False,TU39903,Fundulus notatus,North Fork Salt Prong Hubbard Creek West of Albany,3/26/1961,3/26/1961,Tulane Museum of Natural History,Museum,http://www.fishesoftexas.org/specimen/TU39903,12,1961,False,Fundulus notatus,,Polygon,1,1,1049.964111328
Hubbard,1-5 Events,1961,2402,Vouchered Specimen,2144,True,True,True,False,TU39905,Gambusia affinis,North Fork Salt Prong Hubbard Creek West of Albany,3/26/1961,3/26/1961,Tulane Museum of Natural History,Museum,http://www.fishesoftexas.org/specimen/TU39905,12,1961,False,Gambusia affinis,,Polygon,1,1,1049.964111328
Hubbard,1-5 Events,1961,2402,Vouchered Specimen,2144,True,True,True,False,TU39901,Lepomis cyanellus,North Fork Salt Prong Hubbard Creek West of Albany,3/26/1961,3/26/1961,Tulane Museum of Natural History,Museum,http://www.fishesoftexas.org/specimen/TU39901,12,1961,False,Lepomis cyanellus,,Polygon,1,1,1049.964111328
Hubbard,1-5 Events,1961,2402,Vouchered Specimen,2144,True,True,True,False,TU39906,Lepomis megalotis,North Fork Salt Prong Hubbard Creek West of Albany,3/26/1961,3/26/1961,Tulane Museum of Natural History,Museum,http://www.fishesoftexas.org/specimen/TU39906,12,1961,False,Lepomis megalotis,,Polygon,1,1,1049.964111328
Hubbard,1-5 Events,1961,2402,Vouchered Specimen,2144,True,True,True,False,TU39902,Micropterus salmoides,North Fork Salt Prong Hubbard Creek West of Albany,3/26/1961,3/26/1961,Tulane Museum of Natural History,Museum,http://www.fishesoftexas.org/specimen/TU39902,12,1961,False,Micropterus salmoides,,Polygon,1,1,1049.964111328
